1332,日本水産,水産
1333,マルハニチロ,水産
1605,国際石油開発帝石,鉱業
1721,コムシスホールディングス,建設
1801,大成建設,建設
1802,大林組,建設
1803,清水建設,建設
1808,長谷工コーポレーション,建設
1812,鹿島建設,建設
1925,大和ハウス工業,建設
1928,積水ハウス,建設
1963,日揮,建設
2002,日清製粉グループ本社,食品
2269,明治ホールディングス,食品
2282,日本ハム,食品
2432,ディー・エヌ・エー,サービス
2501,サッポロホールディングス,食品
2502,アサヒグループホールディングス,食品
2503,キリンホールディングス,食品
2531,宝ホールディングス,食品
2768,双日,商社
2801,キッコーマン,食品
2802,味の素,食品
2871,ニチレイ,食品
2914,日本たばこ産業,食品
3086,J.フロントリテイリング,小売業
3099,三越伊勢丹ホールディングス,小売業
3101,東洋紡,繊維
3103,ユニチカ,繊維
3105,日清紡ホールディングス,繊維
3289,東急不動産ホールディングス,不動産
3382,セブン＆アイ・ホールディングス,小売業
3401,帝人,繊維
3402,東レ,繊維
3405,クラレ,化学
3407,旭化成,化学
3436,SUMCO,非鉄・金属
3861,王子ホールディングス,パルプ・紙
3863,日本製紙,パルプ・紙
3865,北越紀州製紙,パルプ・紙
4004,昭和電工,化学
4005,住友化学,化学
4021,日産化学工業,化学
4042,東ソー,化学
4043,トクヤマ,化学
4061,デンカ,化学
4063,信越化学工業,化学
4151,協和発酵キリン,医薬品
4183,三井化学,化学
4188,三菱ケミカルホールディングス,化学
4208,宇部興産,化学
4272,日本化薬,化学
4324,電通,サービス
4452,花王,化学
4502,武田薬品工業,医薬品
4503,アステラス製薬,医薬品
4506,大日本住友製薬,医薬品
4507,塩野義製薬,医薬品
4519,中外製薬,医薬品
4523,エーザイ,医薬品
4543,テルモ,精密機器
4568,第一三共,医薬品
4578,大塚ホールディングス,医薬品
4689,ヤフー,サービス
4704,トレンドマイクロ,サービス
4755,楽天,サービス
4901,富士フイルムホールディングス,化学
4902,コニカミノルタ,精密機器
4911,資生堂,化学
5002,昭和シェル石油,石油
5020,JXTGホールディングス,石油
5101,横浜ゴム,ゴム
5108,ブリヂストン,ゴム
5201,旭硝子,窯業
5202,日本板硝子,窯業
5214,日本電気硝子,窯業
5232,住友大阪セメント,窯業
5233,太平洋セメント,窯業
5301,東海カーボン,窯業
5332,TOTO,窯業
5333,日本碍子,窯業
5401,新日鐵住金,鉄鋼
5406,神戸製鋼所,鉄鋼
5411,ジェイエフイーホールディングス,鉄鋼
5413,日新製鋼,鉄鋼
5541,大平洋金属,鉄鋼
5631,日本製鋼所,機械
5703,日本軽金属ホールディングス,非鉄・金属
5706,三井金属鉱業,非鉄・金属
5707,東邦亜鉛,非鉄・金属
5711,三菱マテリアル,非鉄・金属
5713,住友金属鉱山,非鉄・金属
5714,DOWAホールディングス,非鉄・金属
5715,古河機械金属,非鉄・金属
5801,古河電気工業,非鉄・金属
5802,住友電気工業,非鉄・金属
5803,フジクラ,非鉄・金属
5901,東洋製罐グループホールディングス,非鉄・金属
6103,オークマ,機械
6113,アマダホールディングス,機械
6301,小松製作所,機械
6302,住友重機械工業,機械
6305,日立建機,機械
6326,クボタ,機械
6361,荏原製作所,機械
6366,千代田化工建設,機械
6367,ダイキン工業,機械
6471,日本精工,機械
6472,NTN,機械
6473,ジェイテクト,機械
6479,ミネベア,電気機器
6501,日立製作所,電気機器
6502,東芝,電気機器
6503,三菱電機,電気機器
6504,富士電機,電気機器
6506,安川電機,電気機器
6508,明電舎,電気機器
6674,ジーエス・ユアサコーポレーション,電気機器
6701,日本電気,電気機器
6702,富士通,電気機器
6703,沖電気工業,電気機器
6752,パナソニック,電気機器
6758,ソニー,電気機器
6762,TDK,電気機器
6770,アルプス電気,電気機器
6773,パイオニア,電気機器
6841,横河電機,電気機器
6857,アドバンテスト,電気機器
6902,デンソー,電気機器
6952,カシオ計算機,電気機器
6954,ファナック,電気機器
6971,京セラ,電気機器
6976,太陽誘電,電気機器
6988,日東電工,化学
7003,三井造船,造船
7004,日立造船,機械
7011,三菱重工業,機械
7012,川崎重工業,造船
7013,IHI,機械
7186,コンコルディア・フィナンシャルグループ,銀行
7201,日産自動車,自動車
7202,いすゞ自動車,自動車
7203,トヨタ自動車,自動車
7205,日野自動車,自動車
7211,三菱自動車工業,自動車
7261,マツダ,自動車
7267,本田技研工業,自動車
7269,スズキ,自動車
7270,SUBARU,自動車
7272,ヤマハ発動機,自動車
7731,ニコン,精密機器
7733,オリンパス,精密機器
7735,SCREENホールディングス,電気機器
7751,キヤノン,電気機器
7752,リコー,電気機器
7762,シチズンホールディングス,精密機器
7911,凸版印刷,その他製造
7912,大日本印刷,その他製造
7951,ヤマハ,その他製造
8001,伊藤忠商事,商社
8002,丸紅,商社
8015,豊田通商,商社
8028,ユニー・ファミリーマートホールディングス,小売業
8031,三井物産,商社
8035,東京エレクトロン,電気機器
8053,住友商事,商社
8058,三菱商事,商社
8233,高島屋,小売業
8252,丸井グループ,小売業
8253,クレディセゾン,その他金融
8267,イオン,小売業
8303,新生銀行,銀行
8304,あおぞら銀行,銀行
8306,三菱UFJフィナンシャル・グループ,銀行
8308,りそなホールディングス,銀行
8309,三井住友トラスト・ホールディングス,銀行
8316,三井住友フィナンシャルグループ,銀行
8331,千葉銀行,銀行
8354,ふくおかフィナンシャルグループ,銀行
8355,静岡銀行,銀行
8411,みずほフィナンシャルグループ,銀行
8601,大和証券グループ本社,証券
8604,野村ホールディングス,証券
8628,松井証券,証券
8630,損保ジャパン日本興亜ホールディングス,保険
8725,MS＆ADインシュアランスグループホールディングス,保険
8729,ソニーフィナンシャルホールディングス,保険
8750,第一生命ホールディングス,保険
8766,東京海上ホールディングス,保険
8795,T＆Dホールディングス,保険
8801,三井不動産,不動産
8802,三菱地所,不動産
8804,東京建物,不動産
8830,住友不動産,不動産
9001,東武鉄道,鉄道・バス
9005,東京急行電鉄,鉄道・バス
9007,小田急電鉄,鉄道・バス
9008,京王電鉄,鉄道・バス
9009,京成電鉄,鉄道・バス
9020,東日本旅客鉄道,鉄道・バス
9021,西日本旅客鉄道,鉄道・バス
9022,東海旅客鉄道,鉄道・バス
9062,日本通運,陸運
9064,ヤマトホールディングス,陸運
9101,日本郵船,海運
9104,商船三井,海運
9107,川崎汽船,海運
9202,ANAホールディングス,空運
9301,三菱倉庫,倉庫
9412,スカパーJSATホールディングス,通信
9432,日本電信電話,通信
9433,KDDI,通信
9437,NTTドコモ,通信
9501,東京電力ホールディングス,電気
9502,中部電力,電気
9503,関西電力,電気
9531,東京瓦斯,ガス
9532,大阪瓦斯,ガス
9602,東宝,サービス
9613,エヌ・ティ・ティ・データ,通信
9681,東京ドーム,サービス
9735,セコム,サービス
9766,コナミホールディングス,サービス
9983,ファーストリテイリング,小売業
9984,ソフトバンクグループ,通信